<?xml version="1.0" encoding="UTF-8"?>
<svg width="512px" height="336px" viewBox="0 0 512 336" version="1.1" xmlns="http://www.w3.org/2000/svg" xmlns:xlink="http://www.w3.org/1999/xlink">
    <title>antartica</title>
    <g id="UI-kit" stroke="none" stroke-width="1" fill="none" fill-rule="evenodd">
        <g id="Flags" transform="translate(-284.000000, -388.000000)" fill-rule="nonzero">
            <g id="antartica" transform="translate(284.000000, 388.000000)">
                <path d="M473.655,0 L38.345,0 C17.167,0 0,17.1951468 0,38.40787 L0,297.59213 C0,318.803852 17.167,336 38.345,336 L473.655,336 C494.832,336 512,318.804853 512,297.59213 L512,38.40787 C512,17.1951468 494.833,0 473.655,0 Z" id="Path" fill="#3A7DCE"></path>
                <path d="M170.352462,160.606034 C168.330093,156.560297 168.330093,156.560297 168.330093,152.51506 C167.318659,152.51506 167.129046,152.705171 166.54424,152.545997 C165.959435,152.388319 165.738386,156.276377 163.84176,155.517427 C163.525905,155.138202 165.200984,152.325946 163.383696,151.156834 C162.79889,150.776112 163.525905,148.469323 163.272922,147.457889 C163.272922,147.457889 160.966134,148.658437 159.227685,144.424086 C158.373928,143.317346 157.204816,145.435021 157.204816,145.435021 C157.204816,145.435021 157.710284,146.730874 156.794155,147.047228 C155.498302,146.098665 154.549739,146.596149 152.906595,145.292811 C151.262953,143.988974 153.254385,142.496024 150.125276,141.389783 C152.148145,136.333112 152.148145,137.344047 157.204816,135.321678 C154.170514,133.298809 154.170514,133.298809 152.148145,130.264507 C149.113842,129.253073 148.102408,128.242138 145.068106,126.219269 C141.022868,121.162099 139,111.048756 139,103.969216 C141.560271,101.598558 145.068106,112.06019 150.125276,115.093993 C150.125276,115.093993 157.204816,118.128295 157.204816,118.128295 C161.250054,120.151164 162.261488,122.173533 165.29579,124.196401 C165.29579,124.196401 174.398198,127.230704 174.398198,127.230704 C178.443436,130.264507 180.466304,134.310243 183.500607,135.321678 C186.787393,135.321678 187.4206,133.428544 188.474447,133.310785 C194.420303,133.005908 197.454605,132.239972 198.639685,130.45412 C199.840233,129.032024 202.716358,131.275941 210.807332,128.242138 C210.807332,128.242138 209.796397,124.196401 209.796397,124.196401 C209.796397,124.196401 211.945507,122.426516 214.853068,123.184967 C214.77423,121.336243 214.584118,116.405814 217.448268,114.181357 C215.708821,112.356584 216.875937,111.048756 216.875937,111.048756 C216.875937,111.048756 218.488144,109.499919 218.677258,108.678098 C217.824499,104.2217 219.417246,104.152841 219.774516,102.841519 C220.131288,101.530696 218.398826,101.979779 218.887328,100.172471 C219.374833,98.364663 222.304848,97.9355395 222.697047,96.4465808 C223.090743,94.957622 221.861753,94.2106477 221.932608,93.8553734 C222.564817,92.433278 222.027914,89.0828713 221.932608,87.7870181 C227.369004,86.3331377 229.138889,81.9084252 231.035017,83.7415311 C232.046451,77.6732756 233.057885,75.6505072 239.125991,75.6505072 C239.979747,73.7858658 236.913011,72.2054937 238.114556,71.6050202 C240.137425,71.3521866 241.685762,71.4786283 244.057418,74.5444164 C244.805889,75.5159321 244.941612,73.1221215 245.700063,72.869238 C246.458514,72.6164044 248.273806,72.6124625 248.543755,71.4154075 C248.829172,70.1827252 249.239833,68.5709174 250.251267,66.5481988 C251.104524,64.9047057 251.768169,67.1803077 252.526619,70.4040232 C256.793903,70.5620006 266.433215,71.5102637 270.478452,72.6164044 C273.512755,73.4065904 275.535623,71.8262184 278.443184,71.5101639 C280.592295,73.6593242 282.615163,72.0475164 283.752839,76.630256 C285.359059,79.1030553 287.987689,76.851554 288.557027,77.5784194 C291.939119,86.9020756 303.569863,80.6125222 304.454556,80.7705993 C305.939522,80.7705993 307.753817,84.9393845 308.922929,84.835796 C310.823048,84.5157996 310.285146,83.2200462 311.944757,83.7415311 C311.501662,87.2496657 315.200607,91.2952525 315.200607,93.9182449 C315.200607,93.9182449 316.100768,94.3608409 316.935064,93.5824308 C317.768362,92.8045197 318.534796,90.8053531 319.27728,90.8526565 C321.047165,91.1055399 321.7642,91.3327758 323.804034,91.6892976 C329.287833,93.5629706 332.081128,93.9856073 334.211277,94.9456464 C335.202253,96.7589428 336.162292,97.6875461 338.17069,97.3487381 C339.8303,98.4634612 338.619772,99.9234791 339.599771,100.018285 C341.622639,99.0068514 342.286283,97.9006109 344.308653,98.912045 C346.331521,99.9234791 348.354389,101.946347 349.365823,103.969216 C349.365823,104.980151 348.354389,109.025887 349.365823,115.093993 C349.871291,117.116861 350.11629,118.720586 352.289352,122.1895 C351.712031,125.753221 355.023268,131.749973 355.023268,133.267374 C355.023268,135.289743 353.411061,136.333112 352.399627,138.355481 C356.445363,141.389783 352.399627,146.446455 350.377257,149.480757 C365.547771,152.51506 358.468231,158.583165 370.604443,155.548863 C367.570141,162.628403 368.644446,162.060064 371.678749,169.139604 C365.610144,173.18534 371.553006,174.417324 367.507768,179.473995 C367.254785,179.790349 369.908864,183.867522 373.638745,183.867522 C372.627311,191.958496 369.593009,188.924193 370.604443,201.060904 C362.639711,200.903226 365.863127,210.131876 360.490601,209.151878 C360.806456,214.935564 363.556339,215.441531 362.513469,221.288089 C358.468231,222.299523 358.468231,222.299523 356.445363,225.333826 C356.445363,225.333826 353.411061,224.322392 353.411061,224.322392 C352.399627,229.379063 350.377257,230.390497 353.411061,235.447668 C353.411061,235.447668 349.492065,235.57391 348.354389,235.447668 C348.259084,237.186117 350.092838,237.660149 350.377257,239.492906 C350.219081,240.219921 344.624508,243.411901 340.263415,243.538642 C339.125739,246.035542 343.297219,248.690619 343.044734,249.954537 C338.303419,250.870666 336.217679,256.686288 336.217679,256.686288 C336.217679,256.686288 338.651208,257.666286 338.240547,258.709156 C336.945193,257.760593 336.217679,257.697722 334.195309,257.697722 C333.183875,257.950705 330.71891,257.635848 328.355238,261.624701 C325.761037,262.480453 324.536538,262.171085 322.568557,264.77327 C321.697337,262.294333 320.444396,264.796722 318.912026,265.758258 C317.381153,266.721291 315.318865,269.114902 315.041931,269.01311 C315.105301,268.317032 315.990493,265.788696 315.990493,265.788696 C315.990493,265.788696 310.933323,266.80013 310.933323,266.80013 C310.933323,266.80013 310.707783,266.822085 310.310594,266.862503 C309.912907,266.901922 310.01919,263.910532 309.060648,264.018811 C308.102604,264.128088 305.360705,267.781126 304.426114,267.895393 C303.49302,268.00966 303.197623,266.733267 302.393266,266.844539 C301.589408,266.955812 300.02161,270.697669 299.452273,270.796966 C298.882936,270.896264 296.624549,268.522612 294.689002,268.853935 C284.732838,272.362768 283.152066,261.933071 281.603729,267.811564 C279.517989,266.704825 279.879251,267.347013 277.759581,267.902379 C276.407343,268.251166 276.284094,266.11453 275.081551,266.147463 C272.675465,266.215324 272.801707,268.491176 271.489887,267.811564 C270.41608,263.070248 263.935816,263.923506 263.304106,261.901136 C262.790156,259.791445 266.111372,259.801425 267.185678,258.372344 C268.007,256.310056 266.32793,255.527155 269.660623,253.537719 C274.004251,250.59972 271.507351,249.491483 272.268796,247.283493 C273.631013,244.095505 273.638997,243.317095 272.501321,240.50434 C272.501321,240.50434 269.119229,231.401932 268.455584,231.401932 C266.433215,230.833592 266.433215,234.75159 263.461784,235.826894 C257.393678,237.849263 246.680061,230.706352 244.814871,230.706352 C243.108855,230.738287 235.204999,232.578029 235.50339,228.637079 C234.321803,232.468753 229.976179,229.53724 229.708227,229.53724 C225.66249,229.53724 227.210828,232.666349 224.49238,232.539608 C223.259398,232.128947 210.807332,231.401932 210.807332,231.401932 C210.807332,231.401932 210.807332,233.4248 210.807332,233.4248 C210.807332,233.4248 202.716358,229.379063 202.716358,229.379063 C202.716358,229.379063 195.636818,227.356694 195.636818,227.356694 C189.568712,225.333826 192.603015,220.276655 182.489172,223.310958 C182.489172,223.310958 182.489172,217.242852 182.489172,217.242852 C182.489172,217.242852 177.432501,217.242852 177.432501,217.242852 C179.45487,205.106141 177.432501,211.174746 176.421067,200.04947 C176.421067,200.04947 172.37533,201.060904 172.37533,201.060904 C168.330093,195.593072 178.00084,196.635942 169.341527,192.96993 C169.341527,192.96993 169.499205,186.932761 167.318659,188.924193 C166.876063,189.177177 168.330093,191.958496 168.330093,191.958496 C160.239119,190.947062 158.21625,188.924193 158.21625,180.833219 C158.21625,180.833219 164.885129,181.781782 164.284356,180.833219 C163.336293,179.316318 162.10381,169.455459 162.324858,168.791814 C162.230052,167.464026 168.519705,164.114368 167.302691,160.92139 C168.077109,160.636971 170.352462,160.606034 170.352462,160.606034" id="Path" fill="#FFFFFF"></path>
            </g>
        </g>
    </g>
</svg>